<?xml version="1.0" encoding="UTF-8" standalone="no"?>
<!-- Created with Inkscape (http://www.inkscape.org/) -->

<svg
   xmlns:dc="http://purl.org/dc/elements/1.1/"
   xmlns:cc="http://creativecommons.org/ns#"
   xmlns:rdf="http://www.w3.org/1999/02/22-rdf-syntax-ns#"
   xmlns:svg="http://www.w3.org/2000/svg"
   xmlns="http://www.w3.org/2000/svg"
   xmlns:xlink="http://www.w3.org/1999/xlink"
   xmlns:sodipodi="http://sodipodi.sourceforge.net/DTD/sodipodi-0.dtd"
   xmlns:inkscape="http://www.inkscape.org/namespaces/inkscape"
   width="1280"
   height="960"
   viewBox="0 0 1280 960.00002"
   id="svg2"
   version="1.1"
   inkscape:version="0.91 r13725"
   sodipodi:docname="dessin.svg">
  <defs
     id="defs4" />
  <sodipodi:namedview
     id="base"
     pagecolor="#ffffff"
     bordercolor="#666666"
     borderopacity="1.0"
     inkscape:pageopacity="0.0"
     inkscape:pageshadow="2"
     inkscape:zoom="0.45254834"
     inkscape:cx="656.23267"
     inkscape:cy="462.33475"
     inkscape:document-units="px"
     inkscape:current-layer="layer1"
     showgrid="false"
     inkscape:object-nodes="true"
     inkscape:object-paths="true"
     inkscape:snap-global="false"
     inkscape:window-width="1280"
     inkscape:window-height="846"
     inkscape:window-x="0"
     inkscape:window-y="0"
     inkscape:window-maximized="1"
     units="px" />
  <metadata
     id="metadata7">
    <rdf:RDF>
      <cc:Work
         rdf:about="">
        <dc:format>image/svg+xml</dc:format>
        <dc:type
           rdf:resource="http://purl.org/dc/dcmitype/StillImage" />
        <dc:title />
      </cc:Work>
    </rdf:RDF>
  </metadata>
  <g
     inkscape:groupmode="layer"
     id="layer2"
     inkscape:label="image"
     sodipodi:insensitive="true"
     style="display:none"
     transform="translate(0,-92.362161)">
    <image
       sodipodi:absref="/Users/profs/Desktop/EmdJg.gif"
       xlink:href="EmdJg.gif"
       width="1558"
       height="1558"
       preserveAspectRatio="none"
       id="image4250"
       x="-2369"
       y="-956.63776" />
  </g>
  <g
     inkscape:label="Calque 1"
     inkscape:groupmode="layer"
     id="layer1"
     style="display:inline"
     transform="translate(0,-92.362161)">
    <path
       style="fill:none;fill-rule:evenodd;stroke:#000000;stroke-width:1px;stroke-linecap:butt;stroke-linejoin:miter;stroke-opacity:1"
       d="m -2195.1758,-1252.6953 c -11.2611,33.7304 -53.8236,42.1153 -65.7168,71.5215 -11.2975,7.721 -12.5941,109.6147 -26.0351,119.8047 -21.7388,16.4808 -67.2481,-48.3262 -67.2481,-48.3262 l 40.5938,-58.0527 -101.8321,23.4453 -80.7617,55.6074 195.7383,99.75194 c -0.2932,1.52619 -0.4412,3.06931 -0.4512,4.61524 -5e-4,16.40173 15.8276,29.69836 35.3535,29.69921 19.5267,7e-5 35.356,-13.29683 35.3555,-29.69921 0,-1.94448 -0.2306,-3.88414 -0.6836,-5.79102 l 135.5742,-17.56246 a 118.79394,117.37972 0 0 1 -86.539,61.64449 l 7.5293,36.14453 135.6875,17.57617 a 35.355339,29.698484 0 0 0 -0.6836,5.79102 35.355339,29.698484 0 0 0 35.3554,29.69922 35.355339,29.698484 0 0 0 35.3536,-29.69922 35.355339,29.698484 0 0 0 -0.4512,-4.61523 l 195.7383,-99.75196 -80.7617,-55.60742 -101.8321,-23.4453 40.5938,58.0527 c 0,0 -45.5093,64.80699 -67.2481,48.32619 -13.441,-10.19 -14.7376,-112.08369 -26.0351,-119.80469 -11.8932,-29.4063 -54.4557,-37.7911 -65.7168,-71.5215 -9.0264,5.9222 -20.0628,13.9929 -31.3282,22.5742 a 118.79394,117.37972 0 0 1 23.9043,70.4297 118.79394,117.37972 0 0 1 -2.041,21.1094 c -54.5366,-12.5603 -103.9568,-63.9482 -103.9883,-118.9121 0.042,-25.4145 8.4299,-50.1292 23.9043,-70.4297 -11.2654,-8.5813 -22.3017,-16.652 -31.3281,-22.5742 z"
       id="path4257"
       inkscape:connector-curvature="0" />
    <path
       style="fill:none;fill-rule:evenodd;stroke:#000000;stroke-width:1px;stroke-linecap:butt;stroke-linejoin:miter;stroke-opacity:1"
       d="m -1395,-1136.6378 c 14.9646,37.3733 26.6392,198.9845 19,241.00001 -2.7108,14.90939 -84.6933,-10.19379 -94.25,0 -26.0002,27.73356 -63.0552,-17.99698 -94.25,0 -26.1882,15.10857 -68.7322,-16.71857 -94.25,0 -50.5708,33.13259 -32.5241,-9.74619 -94.25,0 -7.5316,1.1892 -22.6271,130.39226 -31,128 -17.1553,-4.90153 -48,-48.1682 -48,-67"
       id="path4259"
       inkscape:connector-curvature="0"
       sodipodi:nodetypes="cssssssc" />
    <g
       id="g4358"
       transform="translate(-185.60011,615.01742)">
      <path
         inkscape:label="#path4253"
         sodipodi:nodetypes="csssssssccsssssssssssssssssssssssssssssssssssc"
         inkscape:connector-curvature="0"
         id="fushikoma"
         d="m 22.338371,510.8496 c 22.69767,-16.13038 32.62961,-65.96043 56.06753,-73.77306 7.57899,-2.52634 13.63725,-5.34317 20.65646,-8.85277 5.305509,-2.65272 12.034309,3.32744 14.754609,1.96728 0.8878,-0.44391 -0.2699,-8.75673 0,-9.8364 1.3006,-5.20234 4.7132,-11.53038 7.8691,-15.73826 11.3418,-15.12234 29.1438,-22.05219 43.2803,-31.47651 2.5972,-1.73148 -9.2499,-53.70318 -3.9346,-59.01844 7.1858,-7.18582 16.0467,52.25799 18.1973,56.55935 0.4727,0.94521 2.951,-0.24591 2.951,-0.24591 -2.8797,-20.0612 -2.705,-39.70206 -2.705,-56.06753 0,-18.75144 14.8378,-48.41178 34.6733,-52.37888 7.2056,-1.44112 14.4414,0.0448 21.6401,-0.98364 12.5582,-1.79403 25.3593,-2.71389 35.411,5.90185 14.9167,12.78571 51.3765,110.77358 54.1003,129.84058 1.7235,12.06461 1.2952,31.68135 -2.9509,42.29656 -1.0451,2.61265 -9.6376,5.51121 -7.8691,7.86913 4.4957,5.99434 11.9254,7.83294 17.7055,12.78732 17.2941,14.82356 34.774,68.62057 39.3456,91.4786 0.3549,1.77427 1.9506,12.80398 0.9837,13.77098 -4.1866,4.1866 -18.0458,-3.94382 -20.6565,-5.90185 -7.1196,-5.33967 0.9526,-14.7857 -3.9346,-19.67282 -11.9517,-11.95181 -26.6507,-26.67384 -38.3619,-41.31291 -1.2356,-1.54444 -16.7138,-19.19319 -17.7056,-17.70553 -7.0531,10.57961 1.6073,27.88949 3.9346,38.36199 2.694,12.12319 0,27.87362 0,40.32927 0,12.75015 -6.9338,15.04465 -8.8528,26.5583 -2.3072,13.84337 -7.652,20.65646 -23.6074,20.65646 -8.3483,0 -13.8288,-3.35596 -18.6892,-9.83641 -7.3967,-9.86227 13.2909,-15.25819 16.7219,-18.68917 3.3843,-3.38422 -1.8882,-16.48483 -2.9509,-19.67282 -2.4139,-7.24189 -11.2143,-46.49402 -16.7218,-50.16568 -7.9869,-5.32455 -16.8931,-7.01385 -24.5911,-12.78733 -3.0046,-2.25349 -15.6819,-12.49701 -19.6728,-9.83641 -6.1329,4.08862 -8.0326,14.20783 -14.7546,18.68917 -19.3715,12.91432 -37.3297,24.08703 -59.0185,29.50923 -23.771579,5.9429 -3.4491,-16.73466 -4.9182,-19.67281 -2.9868,-5.97367 -15.4719,-5.36902 -17.70555,-9.83642 -0.9134,-1.82686 2.02155,-9.37169 -2.950889,-6.88548 -5.10627,2.55311 -10.03672,9.39466 -15.73825,10.82005 -7.92981,1.98244 -14.32648,1.26139 -21.64015,4.9182 -3.98454,1.99228 -3.63806,11.0491 -5.90183,11.80369 -3.81134,1.27046 -13.59182,2.62912 -17.70551,0.98364 -1.85862,-0.74345 -2.08633,-5.3505 -4.91821,-3.93456 -3.44826,1.72414 -4.30927,7.26018 -5.90183,8.85277 -7.17974,7.1797 -15.31881,-11.13463 -3.93458,-19.67282 z"
         style="fill:#00fff4;fill-opacity:1;fill-rule:evenodd;stroke:#000000;stroke-width:2.45910215;stroke-linecap:butt;stroke-linejoin:miter;stroke-miterlimit:4;stroke-dasharray:none;stroke-opacity:1" />
      <circle
         r="44.194176"
         cy="424.80487"
         cx="194.45436"
         id="path4356"
         style="fill:#7600ff;fill-opacity:0.22745098;stroke:#000000;stroke-opacity:1" />
    </g>
  </g>
</svg>
